{
  // Absolute path to a directory to save database files:
  "databaseDirectory": "/path/to/db",

  // Absolute path to the directory of the assets:
  "assetsDirectory": "/path/to/assets",

  // Hours between automatic feed parsing (1 to 24):
  "parseInterval": 6,

  // Default logger level (debug, info, warn, error, quiet):
  "loggerLevel": "info",

  // Display the 'RSS Reader' prefix on log:
  "loggerPrefix": true,

  // Server port:
  "serverPort": 3000,

  // List of feeds
  "feeds": [
    {
      // Random name
      "name": "Motorsports",
      // Name of the image file in the asset folder
      "img": "motorsports.png",
      // Display color of the feed (hexa)
      "color": "456318",
      // RSS sources
      "sources": [
        {
          // Name of the feed source
          name: "Motorsport.com",
          // Url of the feed source
          url: "https://fr.motorsport.com/rss/f1/news/",
          // RSS parser type
          parser: "motorsport",
          // (optional) Regexps of titles of articles to be filtered
          exceptions: [
            ["starting grid", "i"],
            ["calendar", "i"],
          ],
        },
        {
          "name": "MotoGP",
          "url": "https://fr.motorsport.com/rss/motogp/news/",
          "parser": "motorsport",
        },
      ],
    },
  ],
}
